<svg width="117" height="52" viewBox="0 0 117 52" fill="none" xmlns="http://www.w3.org/2000/svg">
<path d="M14.5044 26.8926H7.77393C7.94799 30.4029 9.05039 33.6752 10.9071 36.412C12.3576 35.8171 13.9822 35.2816 15.7809 34.9246C15.0846 32.3663 14.5624 29.6294 14.5044 26.8926Z" fill="url(#paint0_linear)"/>
<path d="M15.7829 17.4922C13.9842 17.0757 12.3016 16.5998 10.8511 15.9453C9.11045 18.5632 8.00805 21.7165 7.83398 25.0483H14.5064C14.5645 22.4899 15.0866 19.9316 15.7829 17.4922Z" fill="#1053FF"/>
<path d="M20.5378 8.9248C17.1146 9.87675 14.1555 11.8996 11.9507 14.577C13.2852 15.1124 14.7937 15.5289 16.4183 15.8859C17.4627 13.0301 18.9132 10.5907 20.5378 8.9248Z" fill="#1053FF"/>
<path d="M24.3109 43.8493V35.6982C22.1641 35.7577 20.0753 35.9362 18.1606 36.2337C19.7852 40.22 22.1641 43.1948 24.3109 43.8493Z" fill="#1053FF"/>
<path d="M18.1025 16.1817C20.0753 16.4792 22.164 16.6577 24.3108 16.7172V8.3877C22.106 9.04216 19.7271 12.0765 18.1025 16.1817Z" fill="#1053FF"/>
<path d="M16.1875 25.1072H24.3105V18.4436C21.9316 18.3841 19.6108 18.2056 17.522 17.8486C16.7677 20.1095 16.3035 22.5489 16.1875 25.1072Z" fill="#1053FF"/>
<path d="M12.0698 37.8412C14.2746 40.4591 17.2337 42.4225 20.5409 43.3744C18.9744 41.7085 17.5238 39.3881 16.4214 36.5918C14.8548 36.8893 13.3463 37.3058 12.0698 37.8412Z" fill="#1053FF"/>
<path d="M17.58 34.5676C19.7268 34.2106 21.9896 34.0322 24.3105 33.9727V26.8926H16.1875C16.3035 29.5699 16.7677 32.1878 17.58 34.5676Z" fill="#1053FF"/>
<path d="M116.159 25.5835C114.186 22.8467 112.793 20.4668 111.169 18.2654C110.298 17.135 109.196 16.8375 107.803 16.8375C93.7623 16.897 65.564 16.8375 51.5229 16.897C50.0143 16.897 48.5638 15.4691 48.5638 15.4691C44.6183 6.36613 35.7411 0 25.3553 0C11.3722 0 0 11.6613 0 26C0 40.3387 11.3722 52 25.3553 52C35.6831 52 44.6183 45.6339 48.5638 36.5309C48.5638 36.5309 49.6082 35.4005 50.7686 35.4599C53.3215 35.5789 70.0317 35.5789 72.5846 35.4599C73.2808 35.4599 74.0931 35.103 74.6153 34.627C75.8918 33.4966 77.0522 32.1876 78.2707 30.9382C79.7792 32.4851 81.1717 33.913 82.7383 35.5194C84.2469 33.9725 85.6974 32.4851 87.264 30.8787C88.8305 32.4851 90.2811 33.9725 91.7896 35.5194C93.2982 33.9725 94.7487 32.4851 96.3153 30.8787C97.5918 32.1876 98.7522 33.4966 100.087 34.6865C100.609 35.1625 101.421 35.5194 102.117 35.5789C104.67 35.6979 107.281 35.5789 109.892 35.5789C113.083 32.4256 113.722 32.0686 116.681 29.2128C117.261 28.2609 117.029 26.833 116.159 25.5835ZM27.27 8.86499C27.27 8.627 27.5021 8.09153 27.8502 7.91304C28.8946 7.37757 29.2427 7.19908 30.5772 6.9611C31.3895 6.8421 32.9561 7.19908 33.5363 7.43707C34.1165 7.67506 33.9424 8.5675 33.3622 8.627C31.6216 8.80549 30.2291 9.16247 28.4304 9.93593C27.8502 10.2334 27.27 9.69794 27.27 9.28146V8.86499ZM27.27 13.2082C27.27 13.0297 27.27 12.1968 27.9082 11.9588C30.6932 10.6499 32.782 9.93593 35.8571 10.2929C37.4237 10.4714 39.5705 11.7803 40.1507 12.4943C40.7889 13.2677 40.3248 13.8032 39.2224 13.3272C36.3213 12.0183 33.5363 12.0183 30.9834 12.8513C29.8809 13.2082 29.3007 13.5652 28.3144 14.1007C27.7922 14.3982 27.27 13.8032 27.27 13.5057V13.2082ZM26.0515 6.60412V7.31808V8.27002V8.38902V16.7185V18.4439V43.849V43.968V44.6819V45.6339V45.6934C25.7614 45.6934 25.4713 45.6934 25.1812 45.6934C14.6214 45.6934 6.03421 36.8879 6.03421 26.0595C6.03421 15.2311 14.6214 6.42563 25.1812 6.42563C25.4713 6.42563 25.7614 6.42563 26.0515 6.42563V6.60412ZM28.4884 42.7185C28.2563 42.897 27.27 43.849 27.27 42.7185C27.27 41.5881 27.27 42.1236 27.27 42.0641C27.328 41.4691 27.6181 40.8741 28.0243 40.5172C28.5465 40.1007 29.0106 39.5652 29.3588 38.9702C30.055 37.8398 30.2291 36.5904 29.8229 35.2815C29.5908 34.627 29.8229 34.032 30.3451 33.8535C30.8673 33.6751 31.4475 33.913 31.5636 34.627C31.7376 35.2815 31.7956 35.9954 31.8537 36.5309C31.9117 36.7689 31.9117 37.0069 31.8537 37.2448C31.5055 39.8032 30.2291 41.4691 28.4884 42.7185ZM36.3213 42.0046C36.1472 42.1236 36.1472 42.1236 35.9732 42.2426C35.7411 42.3616 34.5807 42.1831 34.3486 42.1236C33.8264 41.9451 33.3622 42.1831 32.9561 42.897C32.782 43.1945 32.782 43.135 32.6079 43.492C32.4339 43.9085 32.0858 44.1465 31.9117 44.1465C31.5636 44.2654 31.3895 44.3249 31.0414 44.3844C30.2871 44.5629 30.5192 43.4325 30.6352 43.016C30.9833 42.1831 31.2154 41.7071 31.9117 40.9336C32.6079 40.2197 33.4202 39.9222 34.5226 39.9817C34.5807 39.9817 34.6387 39.9817 34.7547 40.0412C35.0448 40.1602 35.451 40.3387 35.7991 40.5767C35.9732 40.6956 36.1472 40.8741 36.3213 40.9931C36.6694 41.2906 36.6114 41.7666 36.3213 42.0046ZM40.963 37.3638C40.6149 37.8993 39.8606 37.8993 39.5125 37.4233C38.5261 36.2334 37.5978 34.984 36.7275 33.6751C35.451 31.7712 34.3486 29.7483 33.5943 27.4874C33.5363 27.3089 33.5363 27.1899 33.4783 27.0114C33.4202 26.833 33.4202 26.6545 33.4783 26.5355C33.5943 26.119 33.8844 25.8215 34.2325 25.762C34.6967 25.7025 35.1029 25.9405 35.2769 26.476C35.9732 28.7963 37.1336 30.7597 38.4101 32.7231C39.1643 33.8535 40.0347 34.984 40.905 36.0549C41.2531 36.4119 41.2531 36.9474 40.963 37.3638ZM42.9357 33.913C42.4135 34.746 41.6012 34.032 41.1951 33.5561C39.3384 31.3547 37.9459 28.8558 37.1336 25.881C37.0176 25.4645 36.7855 25.0481 36.4954 24.6911C35.567 23.4416 34.0585 23.2037 33.0721 24.0961C32.2018 24.9291 31.7376 26 31.7956 27.2494C31.9117 28.8558 32.5499 30.2243 33.3042 31.5332C34.6387 34.032 36.3213 36.2334 38.12 38.3158C38.4681 38.7323 38.9903 39.7437 38.4681 40.2197C37.8879 40.7551 36.9595 40.0412 36.6114 39.5652C35.8571 38.6728 35.1029 37.7208 34.4066 36.7689C33.1301 35.0435 31.9697 33.2586 31.0414 31.2952C30.3451 29.7483 29.8229 28.0824 29.939 26.2975C30.113 25.167 30.4612 24.0961 31.1574 23.2037C32.782 21.0023 35.625 20.7643 37.5978 22.7872C38.294 23.5011 38.7582 24.3341 39.0483 25.286C39.7446 27.7849 40.905 29.9268 42.4135 31.7712C42.7036 32.3066 43.3419 33.3181 42.9357 33.913ZM44.3863 29.0938C44.2122 29.9863 43.2258 30.2838 42.7036 29.5698C41.7753 28.2609 41.021 26.833 40.5569 25.1075C40.2668 23.9771 39.6865 22.9657 38.9903 22.0732C37.3657 19.9908 34.9868 19.2174 32.724 20.0503C30.2871 21.0023 28.8946 23.0847 28.8366 26C28.8366 27.3684 28.9526 28.6773 29.0686 30.0458C29.2427 31.8902 29.0686 33.6156 28.4884 35.222C27.9082 36.9474 27.27 35.8169 27.27 34.8055C27.27 33.794 27.27 24.5126 27.27 24.5126C27.27 22.4302 28.1983 21.0023 28.8946 20.2288C31.3315 17.4325 35.7991 16.2426 39.4545 19.6339C41.021 21.0618 41.8913 22.9657 42.5876 25.0481C42.8777 25.9405 43.2839 26.833 43.806 27.6064C43.9221 27.8444 44.0961 28.0229 44.2122 28.2014C44.3282 28.5584 44.3863 28.8558 44.3863 29.0938ZM43.3419 23.5606C42.9357 22.6087 42.4716 21.6567 41.9494 20.7048C38.9323 15.1716 32.4919 14.8146 28.6625 18.1465C28.0243 18.6819 26.9799 19.2174 27.6181 17.492C28.0823 16.3021 28.9526 15.2906 30.113 14.7551C31.7956 13.9817 33.5943 13.6842 35.509 13.9222C38.4101 14.2792 40.847 15.6476 42.6456 18.2654C42.9937 18.7414 43.2839 19.2174 43.574 19.7529C43.8641 20.2883 44.0961 20.8833 44.2122 21.5378C44.3282 22.0137 44.3863 22.4897 44.4443 23.0252C44.6183 23.7986 44.2702 25.762 43.3419 23.5606Z" fill="url(#paint1_linear)"/>
<path d="M82.1008 29.3329C80.3022 29.3329 78.5035 29.3329 76.7048 29.3329C76.4728 29.3329 76.2987 29.3329 76.0666 29.3329C75.6024 29.2734 75.3123 28.9759 75.2543 28.5C75.2543 28.381 75.1963 28.2025 75.1963 28.0835C75.1963 26.0011 75.1963 23.9782 75.1963 21.8958C75.1963 21.8363 75.1963 21.7768 75.1963 21.7173C75.2543 21.0034 75.5444 20.6464 76.2407 20.5869C76.4147 20.5869 76.5308 20.5869 76.7048 20.5869C80.2441 20.5869 83.7834 20.5869 87.3227 20.5869C88.077 20.5869 88.8313 20.7654 89.4695 21.2414C90.3979 21.9553 90.9781 22.9073 91.2102 24.1567C91.5003 25.8226 91.0361 27.191 89.9337 28.381C89.2955 29.0949 88.4832 29.4519 87.5548 29.4519C85.7562 29.3329 83.9575 29.3329 82.1008 29.3329ZM82.681 27.429C84.3056 27.429 85.8722 27.429 87.4968 27.429C88.7152 27.429 89.4695 26.6556 89.5275 25.4061C89.5275 25.0492 89.5275 24.7517 89.5275 24.3947C89.4115 23.5617 89.0634 22.9073 88.193 22.6098C87.961 22.5503 87.6709 22.4908 87.4388 22.4908C86.2783 22.4908 85.1759 22.4908 84.0155 22.4908C81.9268 22.4908 79.838 22.4908 77.7492 22.4908C77.2851 22.4908 77.111 22.6098 77.111 23.1453C77.111 24.3947 77.111 25.5846 77.111 26.8341C77.111 27.31 77.227 27.429 77.7492 27.429C77.8653 27.429 77.9233 27.429 78.0393 27.429C79.6059 27.429 81.1145 27.429 82.681 27.429Z" fill="white"/>
<path d="M66.7244 29.688C65.9701 29.688 65.2738 29.212 64.7516 28.498C64.4035 27.9626 63.9974 27.4866 63.6492 26.9511C63.3591 26.5941 63.069 26.5346 62.7789 26.8916C62.3728 27.3676 62.0247 27.9031 61.6765 28.379C61.3864 28.7955 61.0383 29.1525 60.5741 29.3905C59.5878 29.9259 58.2533 29.6285 57.557 28.7955C57.0348 28.141 56.5126 27.4271 56.0485 26.7726C55.0041 25.3447 53.9017 23.8573 52.8573 22.4294C52.7413 22.2509 52.6252 22.0724 52.5092 21.8344C52.3351 21.4179 52.4511 21.061 52.7993 20.7635C53.1474 20.5255 53.4955 20.5255 53.7856 20.823C54.0757 21.1204 54.3658 21.4774 54.656 21.8344C55.8744 23.5003 57.0928 25.1067 58.2533 26.7726C58.4273 27.0106 58.6594 27.2486 58.8915 27.4866C59.2977 27.8436 59.7038 27.7841 60.0519 27.4271C60.4001 27.0106 60.7482 26.5941 61.0383 26.1777C61.4444 25.7017 61.7926 25.1662 62.1407 24.6902C62.3148 24.5118 62.4888 24.3333 62.6629 24.1548C63.069 23.7978 63.5912 23.7978 63.9394 24.2738C64.5776 25.1662 65.2158 26.0587 65.8541 26.9511C65.9701 27.1296 66.1442 27.3081 66.3182 27.4866C66.6664 27.7841 67.0145 27.7841 67.3626 27.4866C67.7107 27.0701 68.0589 26.6536 68.407 26.2372C69.5674 24.6307 70.7278 23.0243 71.8883 21.4774C72.0623 21.2989 72.1784 21.1205 72.3524 20.942C72.6425 20.6445 72.9907 20.6445 73.3388 20.7635C73.803 20.8825 73.977 21.4774 73.7449 21.8939C73.5709 22.1914 73.3968 22.4889 73.1647 22.7864C71.8302 24.6307 70.4958 26.5346 69.1032 28.379C68.8712 28.6765 68.5811 28.974 68.2909 29.212C68.0008 29.569 67.4206 29.688 66.7244 29.688Z" fill="white"/>
<path d="M103.917 20.1689C104.787 20.2284 105.425 20.5854 105.948 21.2399C107.514 23.3818 109.023 25.4641 110.589 27.606C110.821 27.963 110.937 28.32 110.821 28.7364C110.647 29.2719 110.067 29.5099 109.661 29.1529C109.429 28.9744 109.255 28.7365 109.081 28.4985C108.094 27.13 107.108 25.8211 106.122 24.4527C105.773 23.9767 105.425 23.4413 105.019 22.9653C104.845 22.7273 104.671 22.5488 104.497 22.3703C104.207 22.0728 103.801 22.0728 103.569 22.3703C103.105 22.8463 102.64 23.3818 102.234 23.9172C101.016 25.5236 99.8553 27.13 98.6949 28.7364C98.5788 28.9149 98.4048 29.0339 98.2307 29.1529C97.9406 29.3314 97.6505 29.3314 97.3604 29.0934C97.0123 28.8554 96.8962 28.439 97.0123 28.1415C97.1283 27.844 97.3604 27.487 97.5345 27.249C98.927 25.2856 100.377 23.3223 101.77 21.3589C102.234 20.7639 102.814 20.3474 103.511 20.1689C103.569 20.1689 103.743 20.1689 103.917 20.1689Z" fill="white"/>
<path d="M93.3559 24.9286C93.3559 23.9171 93.3559 22.9057 93.3559 21.9538C93.3559 21.7158 93.4139 21.4778 93.4139 21.2993C93.4719 20.9423 93.704 20.7638 94.0521 20.7043C94.4003 20.6448 94.7484 20.7638 94.9805 21.0613C95.1545 21.3588 95.2126 21.7158 95.2126 22.0133C95.2126 22.8462 95.2126 23.6197 95.2126 24.4526C95.2126 25.583 95.2126 26.7135 95.2126 27.7844C95.2126 28.1414 95.1545 28.5579 94.9224 28.8554C94.7484 29.1528 94.4583 29.3313 94.1101 29.2718C93.762 29.2123 93.5299 28.9743 93.4139 28.6174C93.3559 28.3794 93.2979 28.1414 93.2979 27.9034C93.3559 26.9515 93.3559 25.94 93.3559 24.9286Z" fill="white"/>
<path d="M102.756 27.0699C102.756 26.4749 103.278 25.9395 103.858 25.9395C104.496 25.9395 105.019 26.5344 105.019 27.1294C105.019 27.7244 104.438 28.2598 103.858 28.2598C103.278 28.3193 102.756 27.7838 102.756 27.0699Z" fill="white"/>
<defs>
<linearGradient id="paint0_linear" x1="84.0002" y1="65.9482" x2="-20.6238" y2="18.0451" gradientUnits="userSpaceOnUse">
<stop stop-color="#0099FF"/>
<stop offset="0.7755" stop-color="#1053FF"/>
</linearGradient>
<linearGradient id="paint1_linear" x1="92.2836" y1="47.8583" x2="-12.3404" y2="-0.0446909" gradientUnits="userSpaceOnUse">
<stop offset="6.42205e-09" stop-color="#0099FF"/>
<stop offset="0.7755" stop-color="#1053FF"/>
</linearGradient>
</defs>
</svg>
