<svg width="31" height="31" viewBox="0 0 31 31" fill="none" xmlns="http://www.w3.org/2000/svg">
<path d="M15.457 0.0089858C23.4046 -0.281763 31.0732 6.51555 30.9995 15.6923C30.93 24.2672 23.8589 31.0763 15.4655 30.9994C7.11065 30.9224 -0.0106774 24.2544 1.20185e-05 15.3192C0.00749465 6.64917 7.07858 -0.168456 15.457 0.0089858ZM13.3116 26.0577C14.6467 26.2715 15.8685 26.2234 17.2432 26.0769V16.4416L20.4094 16.2888L20.8883 12.7421L17.2036 12.5796C17.2036 11.5481 17.1609 10.6865 17.2154 9.83244C17.2688 8.95592 17.5917 8.616 18.4746 8.40328C18.9075 8.29959 19.364 8.29532 19.8097 8.2408C20.1561 8.19591 20.5024 8.1446 20.8594 8.09222V5.11632C19.1256 4.63744 17.4709 4.56796 15.8888 5.31087C14.1571 6.12326 13.4025 7.61655 13.3287 9.48183C13.2892 10.4888 13.2966 11.501 13.2838 12.5774C12.1529 12.6416 11.194 12.695 10.2106 12.7527V16.2866C11.2827 16.3508 12.2437 16.4042 13.3105 16.4683V26.0566L13.3116 26.0577Z" fill="white"/>
</svg>
